// =============================================================================
// Scilab ( https://www.scilab.org/ ) - This file is part of Scilab
// Copyright (C) 2011 - DIGITEO - Vincent COUVERT
//
//  This file is distributed under the same license as the Scilab package.
// =============================================================================
// <-- NO CHECK ERROR OUTPUT -->
// <-- ENGLISH IMPOSED -->
// Test the toolbox skeleton in SCI/contrib/
//  - Building/Compilation
//  - Loading
//  - Tests
// Scilab external module skeleton
status = copyfile(SCI + "/contrib/toolbox_skeleton/", TMPDIR + "/toolbox_skeleton/");
assert_checkequal(status, 1);
exec("TMPDIR/toolbox_skeleton/builder.sce");
Building macros...
-- Creation of [toolbox_skeletonlib] (Macros) --
genlib: Processing file: scilab_error.sci
genlib: Processing file: scilab_sum.sci
Building sources...
   Generate a loader file
   Generate a Makefile
   ilib_gen_Make: Copy compilation files (Makefile*, libtool...) to TMPDIR
   ilib_gen_Make: Copy fsum.f to TMPDIR
   ilib_gen_Make: Modification of the Makefile in TMPDIR.
   Running the Makefile
   Generate a cleaner file
   Generate a loader file
   Generate a Makefile
   ilib_gen_Make: Copy compilation files (Makefile*, libtool...) to TMPDIR
   ilib_gen_Make: Copy csum.c to TMPDIR
   ilib_gen_Make: Copy csub.c to TMPDIR
   ilib_gen_Make: Copy multiplybypi.c to TMPDIR
   ilib_gen_Make: configure : Generate Makefile.
   ilib_gen_Make: Modification of the Makefile in TMPDIR.
   Running the Makefile
   Generate a cleaner file
   Building JAR library org.scilab.contrib.toolboxskeleton.jar
   Compiling Java sources in TMPDIR/toolbox_skeleton/src/java/
   Creating JAR archive TMPDIR/toolbox_skeleton/jar/org.scilab.contrib.toolboxskeleton.jar
   Create loader script for Java loader.sce
   Create cleaner script for Java cleaner.sce
Generating cleaner_src.sce...
Building gateway...
   Generate a gateway file
   Generate a loader file
   Generate a Makefile
   ilib_gen_Make: Copy compilation files (Makefile*, libtool...) to TMPDIR
   ilib_gen_Make: Copy libskeleton_c.cpp to TMPDIR
   ilib_gen_Make: Copy libskeleton_c.h to TMPDIR
   ilib_gen_Make: Copy libskeleton_c.hxx to TMPDIR
   ilib_gen_Make: Copy sci_cerror.c to TMPDIR
   ilib_gen_Make: Copy sci_cerror6.c to TMPDIR
   ilib_gen_Make: Copy sci_csub.c to TMPDIR
   ilib_gen_Make: Copy sci_csub6.c to TMPDIR
   ilib_gen_Make: Copy sci_csum.c to TMPDIR
   ilib_gen_Make: Copy sci_csum6.c to TMPDIR
   ilib_gen_Make: Copy sci_foo.c to TMPDIR
   ilib_gen_Make: Copy sci_foo6.c to TMPDIR
   ilib_gen_Make: Copy sci_multiplybypi.c to TMPDIR
   ilib_gen_Make: Copy sci_multiplybypi6.c to TMPDIR
   ilib_gen_Make: configure : Generate Makefile.
   ilib_gen_Make: Modification of the Makefile in TMPDIR.
   Running the makefile
   Generate a cleaner file
   Generate a gateway file
   Generate a loader file
   Generate a Makefile
   ilib_gen_Make: Copy compilation files (Makefile*, libtool...) to TMPDIR
   ilib_gen_Make: Copy libskeleton_fortran.cpp to TMPDIR
   ilib_gen_Make: Copy libskeleton_fortran.h to TMPDIR
   ilib_gen_Make: Copy libskeleton_fortran.hxx to TMPDIR
   ilib_gen_Make: Copy sci_fsum.c to TMPDIR
   ilib_gen_Make: Modification of the Makefile in TMPDIR.
   Running the makefile
   Generate a cleaner file
   Generate a gateway file
   Generate a loader file
   Generate a Makefile
   ilib_gen_Make: Copy compilation files (Makefile*, libtool...) to TMPDIR
   ilib_gen_Make: Copy libskeleton_cpp.cpp to TMPDIR
   ilib_gen_Make: Copy libskeleton_cpp.h to TMPDIR
   ilib_gen_Make: Copy libskeleton_cpp.hxx to TMPDIR
   ilib_gen_Make: Copy sci_cpp_find.cxx to TMPDIR
   ilib_gen_Make: Copy sci_cpperror.cpp to TMPDIR
   ilib_gen_Make: Copy sci_cppfoo.cpp to TMPDIR
   ilib_gen_Make: Copy sci_cppmultiplybypi.cpp to TMPDIR
   ilib_gen_Make: Copy sci_cppsub.cpp to TMPDIR
   ilib_gen_Make: Copy sci_cppsum.cpp to TMPDIR
   ilib_gen_Make: configure : Generate Makefile.
   ilib_gen_Make: Modification of the Makefile in TMPDIR.
   Running the makefile
   Generate a cleaner file
Generating loader_gateway.sce...
Generating cleaner_gateway.sce...
Generating localization
-- Building for "en_US" --
-- Building for "fr_FR" --
Building help...
Building the master document:
	TMPDIR/toolbox_skeleton/help/en_US
Building the manual file [javaHelp] in TMPDIR/toolbox_skeleton/help/en_US.
Generate image ./c_sub_1.png from Scilab code from file c_sub.xml
Generate image ./c_sub_en_US_2.png from Scilab code from file c_sub.xml
Building the master document:
	TMPDIR/toolbox_skeleton/help/fr_FR
Building the manual file [javaHelp] in TMPDIR/toolbox_skeleton/help/fr_FR.
Generate image ./c_sub_1.png from Scilab code from file c_sub.xml
Generate image ./c_sub_fr_FR_2.png from Scilab code from file c_sub.xml
Generating loader.sce...
Generating unloader.sce...
Generating cleaner.sce...
exec("TMPDIR/toolbox_skeleton/loader.sce");
Start Toolbox Skeleton
	Load macros
	Load gateways
	Load Java libraries
	Load help
	Load demos
test_run("TMPDIR/toolbox_skeleton/", [], "short_summary");
 Module  001/001 - [TMPDIR/toolbox_skeleton/] : 
   001/004 - [TMPDIR/toolbox_skeleton/] c_sum...................passed
   002/004 - [TMPDIR/toolbox_skeleton/] fortran_sum.............passed
   003/004 - [TMPDIR/toolbox_skeleton/] java_sum................passed
   004/004 - [TMPDIR/toolbox_skeleton/] scilab_sum..............passed
   --------------------------------------------------------------------------
   Tests:    4,    Passed:    4,    Failed:    0,    Skipped:    0
   --------------------------------------------------------------------------
