// =============================================================================
// Scilab ( https://www.scilab.org/ ) - This file is part of Scilab
// Copyright (C) 2020 - Stéphane MOTTELET
//
//  This file is distributed under the same license as the Scilab package.
// =============================================================================
//
// <-- CLI SHELL MODE -->
//
// <-- Non-regression test for bug 16459 -->
//
// <-- GitLab URL -->
// https://gitlab.com/scilab/scilab/-/issues/16459
//
// <-- Short Description -->
// The display of one column hypermatrix is wrong
matrix(1:8, [1,1,2,2,2])
 ans  =
(:,:,1,1,1)
   1.
(:,:,2,1,1)
   2.
(:,:,1,2,1)
   3.
(:,:,2,2,1)
   4.
(:,:,1,1,2)
   5.
(:,:,2,1,2)
   6.
(:,:,1,2,2)
   7.
(:,:,2,2,2)
   8.
cat(4,4,5)
 ans  =
(:,:,1,1)
   4.
(:,:,1,2)
   5.
