//<-- CLI SHELL MODE -->
// =============================================================================
// Scilab ( https://www.scilab.org/ ) - This file is part of Scilab
// Copyright (C) ????-2008 - INRIA
//
//  This file is distributed under the same license as the Scilab package.
// =============================================================================
format("v",10)
//display of numbers
x=2.6533333
 x  = 
   2.6533333
x=[2.6533333 -0.0002]
 x  = 
   2.6533333  -0.0002
x'
 ans  =
   2.6533333
  -0.0002
x=[]
 x  = 
    []
//display of polynomials
z=poly(0,"z")
 z  = 
  z
num=[ (((((1)*z-2.6533333)*z+2.6887936)*z-1.2916784)*z+0.2911572)* ...
z-0.0243497
(((((1)*z-2.6533333)*z+2.6887936)*z-1.2916784)*z+0.2911572)* ...
z-0.0243497
(((1)*z )*z )*z+1
0]
 num  = 
  -0.0243497 +0.2911572z -1.2916784z² +2.6887936z³ -2.6533333z⁴ +z⁵
  -0.0243497 +0.2911572z -1.2916784z² +2.6887936z³ -2.6533333z⁴ +z⁵
  1 +z³                                                            
  0                                                                
den = [ ((((1)*z-1.536926)*z+0.8067352)*z-0.1682810)*z+0.0113508
((((1)*z-1.536926)*z+0.8067352)*z-0.1682810)*z+0.0113508
((1)*z )*z
1]
 den  = 
  0.0113508 -0.168281z +0.8067352z² -1.536926z³ +z⁴
  0.0113508 -0.168281z +0.8067352z² -1.536926z³ +z⁴
  z²                                               
  1                                                
num',den'
 ans  =
         column 1
  -0.0243497 +0.2911572z -1.2916784z² +2.6887936z³ -2.6533333z⁴ +z⁵
         column 2
  -0.0243497 +0.2911572z -1.2916784z² +2.6887936z³ -2.6533333z⁴ +z⁵
         column 3 to 4
  1 +z³  0
 ans  =
         column 1
  0.0113508 -0.168281z +0.8067352z² -1.536926z³ +z⁴
         column 2 to 4
  0.0113508 -0.168281z +0.8067352z² -1.536926z³ +z⁴  z²  1
[num;den]
 ans  =
  -0.0243497 +0.2911572z -1.2916784z² +2.6887936z³ -2.6533333z⁴ +z⁵
  -0.0243497 +0.2911572z -1.2916784z² +2.6887936z³ -2.6533333z⁴ +z⁵
  1 +z³                                                            
  0                                                                
  0.0113508 -0.168281z +0.8067352z² -1.536926z³ +z⁴                
  0.0113508 -0.168281z +0.8067352z² -1.536926z³ +z⁴                
  z²                                                               
  1                                                                
[num den]
 ans  =
         column 1
  -0.0243497 +0.2911572z -1.2916784z² +2.6887936z³ -2.6533333z⁴ +z⁵
  -0.0243497 +0.2911572z -1.2916784z² +2.6887936z³ -2.6533333z⁴ +z⁵
  1 +z³                                                            
  0                                                                
         column 2
  0.0113508 -0.168281z +0.8067352z² -1.536926z³ +z⁴
  0.0113508 -0.168281z +0.8067352z² -1.536926z³ +z⁴
  z²                                               
  1                                                
//display of polynomials
z=poly(0,"z")
 z  = 
  z
n=1+z;d=n*n;n1=[n d];d1=[d d*d];n1=[n1 n1];d1=[d1 d1];
n2=[n n*n;n*n n**4];d2=[n*n n**4;n n*n];den=d2(1,:);num=n2(2,:);
p=poly(rand(5,1),"z");q=poly(rand(6,1),"z");
p1=[p,0.1+2.35*z-5.05*z**3];q1=[q,2.56+0.03*z-10.01*z*z+z**5];
d3=[1+z**10 z**15];
//display of rationals
r=num./den
 r  = 
   1  1  
   -  -  
   1  1  
r'
 ans  =
   1  
   -  
   1  
   1  
   -  
   1  
rlist(d,n)
 ans  =
   1 +2z +z²  
   ---------  
     1 +z     
rlist(n,d)
 ans  =
     1 +z     
   ---------  
   1 +2z +z²  
rlist(d2,n2)
 ans  =
   1 +2z +z²  1 +4z +6z² +4z³ +z⁴  
   ---------  -------------------  
     1 +z          1 +2z +z²       
     1 +z          1 +2z +z²       
   ---------  -------------------  
   1 +2z +z²  1 +4z +6z² +4z³ +z⁴  
rlist(n2,d2)
 ans  =
     1 +z          1 +2z +z²       
   ---------  -------------------  
   1 +2z +z²  1 +4z +6z² +4z³ +z⁴  
   1 +2z +z²  1 +4z +6z² +4z³ +z⁴  
   ---------  -------------------  
     1 +z          1 +2z +z²       
rlist(den,num)
 ans  =
   1 +2z +z²  1 +4z +6z² +4z³ +z⁴  
   ---------  -------------------  
   1 +2z +z²  1 +4z +6z² +4z³ +z⁴  
rlist(num,den)
 ans  =
   1 +2z +z²  1 +4z +6z² +4z³ +z⁴  
   ---------  -------------------  
   1 +2z +z²  1 +4z +6z² +4z³ +z⁴  
rlist(p1,q1)
 ans  =
 
         column 1
 
   -0.0000078 +0.0351988z -0.3720034z² +1.3432153z³ -1.9632981z⁴ +z⁵  
   -----------------------------------------------------------------  
     0.0123314 -0.2684985z +1.5393672z² -4.0114366z³ +5.4004179z⁴     
      -3.6713072z⁵ +z⁶                                                
 
         column 2
 
      0.1 +2.35z -5.05z³     
   ------------------------  
   2.56 +0.03z -10.01z² +z⁵  
                             
rlist(q1,p1)
 ans  =
 
         column 1
 
     0.0123314 -0.2684985z +1.5393672z² -4.0114366z³ +5.4004179z⁴     
      -3.6713072z⁵ +z⁶                                                
   -----------------------------------------------------------------  
   -0.0000078 +0.0351988z -0.3720034z² +1.3432153z³ -1.9632981z⁴ +z⁵  
 
         column 2
 
   2.56 +0.03z -10.01z² +z⁵  
   ------------------------  
      0.1 +2.35z -5.05z³     
                             
rlist(p,q)
 ans  =
   -0.0000078 +0.0351988z -0.3720034z² +1.3432153z³ -1.9632981z⁴ +z⁵  
   -----------------------------------------------------------------  
     0.0123314 -0.2684985z +1.5393672z² -4.0114366z³ +5.4004179z⁴     
      -3.6713072z⁵ +z⁶                                                
rlist(q,p)
 ans  =
     0.0123314 -0.2684985z +1.5393672z² -4.0114366z³ +5.4004179z⁴     
      -3.6713072z⁵ +z⁶                                                
   -----------------------------------------------------------------  
   -0.0000078 +0.0351988z -0.3720034z² +1.3432153z³ -1.9632981z⁴ +z⁵  
rlist(p,z)
 ans  =
   -0.0000078 +0.0351988z -0.3720034z² +1.3432153z³ -1.9632981z⁴ +z⁵  
   -----------------------------------------------------------------  
                                   z                                  
rlist(z,p)
 ans  =
                                   z                                  
   -----------------------------------------------------------------  
   -0.0000078 +0.0351988z -0.3720034z² +1.3432153z³ -1.9632981z⁴ +z⁵  
rlist(d1,n1)
 ans  =
   1 +2z +z²  1 +4z +6z² +4z³ +z⁴  1 +2z +z²  1 +4z +6z² +4z³ +z⁴  
   ---------  -------------------  ---------  -------------------  
     1 +z          1 +2z +z²         1 +z          1 +2z +z²       
rlist(n1,d1)
 ans  =
     1 +z          1 +2z +z²         1 +z          1 +2z +z²       
   ---------  -------------------  ---------  -------------------  
   1 +2z +z²  1 +4z +6z² +4z³ +z⁴  1 +2z +z²  1 +4z +6z² +4z³ +z⁴  
//display of strings
digits="abcdefghijklmnopqrstuvwxyz"
 digits  = 
  "abcdefghijklmnopqrstuvwxyz"
numbers="1234567890"
 numbers  = 
  "1234567890"
majuscules="ABCDEFGHIJKLMNOPQRSTUVWXYZ"
 majuscules  = 
  "ABCDEFGHIJKLMNOPQRSTUVWXYZ"
symbols=",./;''[] \ =-!\$%^&*()_+~:""[]| @"
 symbols  = 
  ",./;'[] \ =-!\$%^&*()_+~:"[]| @"
[numbers;digits]
 ans  =
  "1234567890"                
  "abcdefghijklmnopqrstuvwxyz"
[numbers digits;digits numbers]
 ans  =
  "1234567890"                  "abcdefghijklmnopqrstuvwxyz"
  "abcdefghijklmnopqrstuvwxyz"  "1234567890"                
[numbers digits+digits+digits]
 ans  =
         column 1
  "1234567890"
         column 2
  "abcdefghijklmnopqrstuvwxyzabcdefghijklmnopqrstuvwxyzabcdefghijklmnopqrstuvwxyz"
ans';
[ans ans]
 ans  =
         column 1
  "1234567890"                                                         
  "abcdefghijklmnopqrstuvwxyzabcdefghijklmnopqrstuvwxyzabcdefghijklmnopqrstuvwxyz"
         column 2
  "1234567890"                                                         
  "abcdefghijklmnopqrstuvwxyzabcdefghijklmnopqrstuvwxyzabcdefghijklmnopqrstuvwxyz"
""
 ans  =
  ""
oldlines = lines();
lines(0,50);
digits="abcdefghijklmnopqrstuvwxyz";
d = digits+digits+digits;
n = "1234567890";
// scalar
n
 n  = 
  "1234567890"
n+n+n+n+n
 ans  =
  "12345678901234567890123456789012345678901234567890"
d
 d  = 
  "abcdefghijklmnopqrstuvwxyzabcdefghijklmnopqrstuvwxyzabcdefghijklmnopqrstuvwxyz"
d+d+d+d
 ans  =
  "abcdefghijklmnopqrstuvwxyzabcdefghijklmnopqrstuvwxyzabcdefghijklmnopqrstuvwxyzabcdefghijklmnopqrstuvwxyzabcdefghijklmnopqrstuvwxyzabcdefghijklmnopqrstuvwxyzabcdefghijklmnopqrstuvwxyzabcdefghijklmnopqrstuvwxyzabcdefghijklmnopqrstuvwxyzabcdefghijklmnopqrstuvwxyzabcdefghijklmnopqrstuvwxyzabcdefghijklmnopqrstuvwxyz"
// column vector
[n; n; n; n; n]
 ans  =
  "1234567890"
  "1234567890"
  "1234567890"
  "1234567890"
  "1234567890"
[d; d; d; d; d]
 ans  =
  "abcdefghijklmnopqrstuvwxyzabcdefghijklmnopqrstuvwxyzabcdefghijklmnopqrstuvwxyz"
  "abcdefghijklmnopqrstuvwxyzabcdefghijklmnopqrstuvwxyzabcdefghijklmnopqrstuvwxyz"
  "abcdefghijklmnopqrstuvwxyzabcdefghijklmnopqrstuvwxyzabcdefghijklmnopqrstuvwxyz"
  "abcdefghijklmnopqrstuvwxyzabcdefghijklmnopqrstuvwxyzabcdefghijklmnopqrstuvwxyz"
  "abcdefghijklmnopqrstuvwxyzabcdefghijklmnopqrstuvwxyzabcdefghijklmnopqrstuvwxyz"
[n+n; n+n; n+n]
 ans  =
  "12345678901234567890"
  "12345678901234567890"
  "12345678901234567890"
[n+n; n+n+n; n+n]
 ans  =
  "12345678901234567890"          
  "123456789012345678901234567890"
  "12345678901234567890"          
[n+n; d+d; n+n]
 ans  =
  "12345678901234567890"                         
  "abcdefghijklmnopqrstuvwxyzabcdefghijklmnopqrstuvwxyzabcdefghijklmnopqrstuvwxyzabcdefghijklmnopqrstuvwxyzabcdefghijklmnopqrstuvwxyzabcdefghijklmnopqrstuvwxyz"
  "12345678901234567890"                         
[d; d]
 ans  =
  "abcdefghijklmnopqrstuvwxyzabcdefghijklmnopqrstuvwxyzabcdefghijklmnopqrstuvwxyz"
  "abcdefghijklmnopqrstuvwxyzabcdefghijklmnopqrstuvwxyzabcdefghijklmnopqrstuvwxyz"
[d; n]
 ans  =
  "abcdefghijklmnopqrstuvwxyzabcdefghijklmnopqrstuvwxyzabcdefghijklmnopqrstuvwxyz"
  "1234567890"                                   
[n; d]
 ans  =
  "1234567890"                                   
  "abcdefghijklmnopqrstuvwxyzabcdefghijklmnopqrstuvwxyzabcdefghijklmnopqrstuvwxyz"
[n; n]
 ans  =
  "1234567890"
  "1234567890"
// row vector
[n n n n n]
 ans  =
         column 1 to 3
  "1234567890"  "1234567890"  "1234567890"
         column 4 to 5
  "1234567890"  "1234567890"
[d d d d d]
 ans  =
         column 1
  "abcdefghijklmnopqrstuvwxyzabcdefghijklmnopqrstuvwxyzabcdefghijklmnopqrstuvwxyz"
         column 2
  "abcdefghijklmnopqrstuvwxyzabcdefghijklmnopqrstuvwxyzabcdefghijklmnopqrstuvwxyz"
         column 3
  "abcdefghijklmnopqrstuvwxyzabcdefghijklmnopqrstuvwxyzabcdefghijklmnopqrstuvwxyz"
         column 4
  "abcdefghijklmnopqrstuvwxyzabcdefghijklmnopqrstuvwxyzabcdefghijklmnopqrstuvwxyz"
         column 5
  "abcdefghijklmnopqrstuvwxyzabcdefghijklmnopqrstuvwxyzabcdefghijklmnopqrstuvwxyz"
[n+n n+n n+n]
 ans  =
         column 1 to 2
  "12345678901234567890"  "12345678901234567890"
         column 3
  "12345678901234567890"
[n+n n+n+n n+n]
 ans  =
         column 1
  "12345678901234567890"
         column 2
  "123456789012345678901234567890"
         column 3
  "12345678901234567890"
[d d]
 ans  =
         column 1
  "abcdefghijklmnopqrstuvwxyzabcdefghijklmnopqrstuvwxyzabcdefghijklmnopqrstuvwxyz"
         column 2
  "abcdefghijklmnopqrstuvwxyzabcdefghijklmnopqrstuvwxyzabcdefghijklmnopqrstuvwxyz"
[d n]
 ans  =
         column 1
  "abcdefghijklmnopqrstuvwxyzabcdefghijklmnopqrstuvwxyzabcdefghijklmnopqrstuvwxyz"
         column 2
  "1234567890"
[n d]
 ans  =
         column 1
  "1234567890"
         column 2
  "abcdefghijklmnopqrstuvwxyzabcdefghijklmnopqrstuvwxyzabcdefghijklmnopqrstuvwxyz"
[n n]
 ans  =
  "1234567890"  "1234567890"
// matrix
nd = [n d];
dn = [d n];
[nd nd]
 ans  =
         column 1
  "1234567890"
         column 2
  "abcdefghijklmnopqrstuvwxyzabcdefghijklmnopqrstuvwxyzabcdefghijklmnopqrstuvwxyz"
         column 3
  "1234567890"
         column 4
  "abcdefghijklmnopqrstuvwxyzabcdefghijklmnopqrstuvwxyzabcdefghijklmnopqrstuvwxyz"
[nd; nd]
 ans  =
         column 1
  "1234567890"
  "1234567890"
         column 2
  "abcdefghijklmnopqrstuvwxyzabcdefghijklmnopqrstuvwxyzabcdefghijklmnopqrstuvwxyz"
  "abcdefghijklmnopqrstuvwxyzabcdefghijklmnopqrstuvwxyzabcdefghijklmnopqrstuvwxyz"
[nd' nd']
 ans  =
         column 1
  "1234567890"                                   
  "abcdefghijklmnopqrstuvwxyzabcdefghijklmnopqrstuvwxyzabcdefghijklmnopqrstuvwxyz"
         column 2
  "1234567890"                                   
  "abcdefghijklmnopqrstuvwxyzabcdefghijklmnopqrstuvwxyzabcdefghijklmnopqrstuvwxyz"
[nd'; nd']
 ans  =
  "1234567890"                                   
  "abcdefghijklmnopqrstuvwxyzabcdefghijklmnopqrstuvwxyzabcdefghijklmnopqrstuvwxyz"
  "1234567890"                                   
  "abcdefghijklmnopqrstuvwxyzabcdefghijklmnopqrstuvwxyzabcdefghijklmnopqrstuvwxyz"
[dn dn]
 ans  =
         column 1
  "abcdefghijklmnopqrstuvwxyzabcdefghijklmnopqrstuvwxyzabcdefghijklmnopqrstuvwxyz"
         column 2
  "1234567890"
         column 3
  "abcdefghijklmnopqrstuvwxyzabcdefghijklmnopqrstuvwxyzabcdefghijklmnopqrstuvwxyz"
         column 4
  "1234567890"
[dn; dn]
 ans  =
         column 1
  "abcdefghijklmnopqrstuvwxyzabcdefghijklmnopqrstuvwxyzabcdefghijklmnopqrstuvwxyz"
  "abcdefghijklmnopqrstuvwxyzabcdefghijklmnopqrstuvwxyzabcdefghijklmnopqrstuvwxyz"
         column 2
  "1234567890"
  "1234567890"
[dn' dn']
 ans  =
         column 1
  "abcdefghijklmnopqrstuvwxyzabcdefghijklmnopqrstuvwxyzabcdefghijklmnopqrstuvwxyz"
  "1234567890"                                   
         column 2
  "abcdefghijklmnopqrstuvwxyzabcdefghijklmnopqrstuvwxyzabcdefghijklmnopqrstuvwxyz"
  "1234567890"                                   
[dn'; dn']
 ans  =
  "abcdefghijklmnopqrstuvwxyzabcdefghijklmnopqrstuvwxyzabcdefghijklmnopqrstuvwxyz"
  "1234567890"                                   
  "abcdefghijklmnopqrstuvwxyzabcdefghijklmnopqrstuvwxyzabcdefghijklmnopqrstuvwxyz"
  "1234567890"                                   
lines(oldlines);
// boolean
%t
 ans  =
  T
%f
 ans  =
  F
b=[%t %t %t]
 b  = 
  T T T
~b
 ans  =
  F F F
bp=b'
 bp  = 
  T
  T
  T
~bp
 ans  =
  F
  F
  F
bb=[b; b; b]
 bb  = 
  T T T
  T T T
  T T T
 
~bb
 ans  =
  F F F
  F F F
  F F F
 
