// =============================================================================
// Scilab ( https://www.scilab.org/ ) - This file is part of Scilab
// Copyright (C) 2015 - Scilab Enterprises - Paul Bignier
//
//  This file is distributed under the same license as the Scilab package.
// =============================================================================
//
// <-- XCOS TEST -->
//
// <-- CLI SHELL MODE -->
scicos_log("TRACE");
loadXcosLibs
// Loading a Superblock containing an mlist as subdiagram
exec("SCI/modules/scicos/palettes/Lookup_Tables.cosf", -1);
Xcos info:    objectCreated( 1 , DIAGRAM )
Xcos trace:   objectReferenced( 1 , DIAGRAM ) : 1
Xcos debug:   propertyUpdated( 1 , DIAGRAM , TITLE ) : SUCCESS
Xcos debug:   propertyUpdated( 1 , DIAGRAM , PATH ) : SUCCESS
Xcos debug:   propertyUpdated( 1 , DIAGRAM , PROPERTIES ) : SUCCESS
Xcos debug:   propertyUpdated( 1 , DIAGRAM , PROPERTIES ) : SUCCESS
Xcos trace:   propertyUpdated( 1 , DIAGRAM , CONTEXT ) : NO_CHANGES
Xcos trace:   objectUnreferenced( 1 , DIAGRAM ) : 0
Xcos trace:   propertyUpdated( 1 , DIAGRAM , CHILDREN ) : NO_CHANGES
Xcos debug:   propertyUpdated( 1 , DIAGRAM , VERSION_NUMBER ) : SUCCESS
Xcos info:    objectCreated( 2 , BLOCK )
Xcos trace:   objectReferenced( 2 , BLOCK ) : 1
Xcos trace:   propertyUpdated( 2 , BLOCK , GEOMETRY ) : NO_CHANGES
Xcos debug:   propertyUpdated( 2 , BLOCK , GEOMETRY ) : SUCCESS
Xcos trace:   propertyUpdated( 2 , BLOCK , EXPRS ) : NO_CHANGES
Xcos debug:   propertyUpdated( 2 , BLOCK , DESCRIPTION ) : SUCCESS
Xcos trace:   propertyUpdated( 2 , BLOCK , STYLE ) : NO_CHANGES
Xcos trace:   objectUnreferenced( 2 , BLOCK ) : 0
Xcos trace:   objectReferenced( 2 , BLOCK ) : 1
Xcos debug:   propertyUpdated( 2 , BLOCK , SIM_FUNCTION_NAME ) : SUCCESS
Xcos trace:   propertyUpdated( 2 , BLOCK , SIM_FUNCTION_API ) : NO_CHANGES
Xcos trace:   propertyUpdated( 2 , BLOCK , STATE ) : NO_CHANGES
Xcos trace:   propertyUpdated( 2 , BLOCK , DSTATE ) : NO_CHANGES
Xcos trace:   propertyUpdated( 2 , BLOCK , ODSTATE ) : NO_CHANGES
Xcos trace:   objectReferenced( 2 , BLOCK ) : 2
Xcos trace:   objectReferenced( 2 , BLOCK ) : 3
Xcos trace:   propertyUpdated( 2 , BLOCK , DESCRIPTION ) : NO_CHANGES
Xcos trace:   propertyUpdated( 2 , BLOCK , CONTEXT ) : NO_CHANGES
Xcos trace:   objectUnreferenced( 2 , BLOCK ) : 2
Xcos info:    objectCreated( 3 , BLOCK )
Xcos trace:   objectReferenced( 3 , BLOCK ) : 1
Xcos trace:   propertyUpdated( 3 , BLOCK , GEOMETRY ) : NO_CHANGES
Xcos debug:   propertyUpdated( 3 , BLOCK , GEOMETRY ) : SUCCESS
Xcos debug:   propertyUpdated( 3 , BLOCK , EXPRS ) : SUCCESS
Xcos info:    objectCreated( 4 , PORT )
Xcos debug:   propertyUpdated( 4 , PORT , SOURCE_BLOCK ) : SUCCESS
Xcos debug:   propertyUpdated( 4 , PORT , PORT_KIND ) : SUCCESS
Xcos trace:   propertyUpdated( 4 , PORT , CONNECTED_SIGNALS ) : NO_CHANGES
Xcos debug:   propertyUpdated( 3 , BLOCK , INPUTS ) : SUCCESS
Xcos info:    objectCreated( 5 , PORT )
Xcos debug:   propertyUpdated( 5 , PORT , SOURCE_BLOCK ) : SUCCESS
Xcos debug:   propertyUpdated( 5 , PORT , PORT_KIND ) : SUCCESS
Xcos trace:   propertyUpdated( 5 , PORT , CONNECTED_SIGNALS ) : NO_CHANGES
Xcos debug:   propertyUpdated( 3 , BLOCK , OUTPUTS ) : SUCCESS
Xcos trace:   propertyUpdated( 3 , BLOCK , DESCRIPTION ) : NO_CHANGES
Xcos trace:   propertyUpdated( 4 , PORT , IMPLICIT ) : NO_CHANGES
Xcos trace:   propertyUpdated( 5 , PORT , IMPLICIT ) : NO_CHANGES
Xcos trace:   objectUnreferenced( 3 , BLOCK ) : 0
Xcos trace:   objectReferenced( 3 , BLOCK ) : 1
Xcos debug:   propertyUpdated( 3 , BLOCK , SIM_FUNCTION_NAME ) : SUCCESS
Xcos debug:   propertyUpdated( 3 , BLOCK , SIM_FUNCTION_API ) : SUCCESS
Xcos debug:   propertyUpdated( 4 , PORT , DATATYPE ) : SUCCESS
Xcos debug:   propertyUpdated( 4 , PORT , DATATYPE ) : SUCCESS
Xcos trace:   propertyUpdated( 4 , PORT , DATATYPE ) : NO_CHANGES
Xcos debug:   propertyUpdated( 5 , PORT , DATATYPE ) : SUCCESS
Xcos debug:   propertyUpdated( 5 , PORT , DATATYPE ) : SUCCESS
Xcos debug:   propertyUpdated( 5 , PORT , DATATYPE ) : SUCCESS
Xcos trace:   propertyUpdated( 3 , BLOCK , STATE ) : NO_CHANGES
Xcos trace:   propertyUpdated( 3 , BLOCK , DSTATE ) : NO_CHANGES
Xcos trace:   propertyUpdated( 3 , BLOCK , ODSTATE ) : NO_CHANGES
Xcos debug:   propertyUpdated( 3 , BLOCK , RPAR ) : SUCCESS
Xcos debug:   propertyUpdated( 3 , BLOCK , IPAR ) : SUCCESS
Xcos trace:   propertyUpdated( 3 , BLOCK , OPAR ) : NO_CHANGES
Xcos trace:   propertyUpdated( 3 , BLOCK , SIM_BLOCKTYPE ) : NO_CHANGES
Xcos debug:   propertyUpdated( 3 , BLOCK , SIM_DEP_UT ) : SUCCESS
Xcos trace:   propertyUpdated( 3 , BLOCK , DESCRIPTION ) : NO_CHANGES
Xcos trace:   propertyUpdated( 3 , BLOCK , NZCROSS ) : NO_CHANGES
Xcos trace:   propertyUpdated( 3 , BLOCK , NMODE ) : NO_CHANGES
Xcos trace:   propertyUpdated( 3 , BLOCK , EQUATIONS ) : NO_CHANGES
Xcos trace:   objectUnreferenced( 3 , BLOCK ) : 0
Xcos debug:   propertyUpdated( 3 , BLOCK , INTERFACE_FUNCTION ) : SUCCESS
Xcos info:    objectCreated( 6 , BLOCK )
Xcos trace:   objectReferenced( 6 , BLOCK ) : 1
Xcos debug:   propertyUpdated( 6 , BLOCK , GEOMETRY ) : SUCCESS
Xcos debug:   propertyUpdated( 6 , BLOCK , GEOMETRY ) : SUCCESS
Xcos debug:   propertyUpdated( 6 , BLOCK , EXPRS ) : SUCCESS
Xcos info:    objectCreated( 7 , PORT )
Xcos debug:   propertyUpdated( 7 , PORT , SOURCE_BLOCK ) : SUCCESS
Xcos debug:   propertyUpdated( 7 , PORT , PORT_KIND ) : SUCCESS
Xcos trace:   propertyUpdated( 7 , PORT , CONNECTED_SIGNALS ) : NO_CHANGES
Xcos info:    objectCreated( 8 , PORT )
Xcos debug:   propertyUpdated( 8 , PORT , SOURCE_BLOCK ) : SUCCESS
Xcos debug:   propertyUpdated( 8 , PORT , PORT_KIND ) : SUCCESS
Xcos trace:   propertyUpdated( 8 , PORT , CONNECTED_SIGNALS ) : NO_CHANGES
Xcos debug:   propertyUpdated( 6 , BLOCK , INPUTS ) : SUCCESS
Xcos info:    objectCreated( 9 , PORT )
Xcos debug:   propertyUpdated( 9 , PORT , SOURCE_BLOCK ) : SUCCESS
Xcos debug:   propertyUpdated( 9 , PORT , PORT_KIND ) : SUCCESS
Xcos trace:   propertyUpdated( 9 , PORT , CONNECTED_SIGNALS ) : NO_CHANGES
Xcos debug:   propertyUpdated( 6 , BLOCK , OUTPUTS ) : SUCCESS
Xcos trace:   propertyUpdated( 6 , BLOCK , DESCRIPTION ) : NO_CHANGES
Xcos trace:   propertyUpdated( 7 , PORT , IMPLICIT ) : NO_CHANGES
Xcos trace:   propertyUpdated( 8 , PORT , IMPLICIT ) : NO_CHANGES
Xcos trace:   propertyUpdated( 9 , PORT , IMPLICIT ) : NO_CHANGES
Xcos trace:   objectUnreferenced( 6 , BLOCK ) : 0
Xcos trace:   objectReferenced( 6 , BLOCK ) : 1
Xcos debug:   propertyUpdated( 6 , BLOCK , SIM_FUNCTION_NAME ) : SUCCESS
Xcos debug:   propertyUpdated( 6 , BLOCK , SIM_FUNCTION_API ) : SUCCESS
Xcos debug:   propertyUpdated( 7 , PORT , DATATYPE ) : SUCCESS
Xcos debug:   propertyUpdated( 8 , PORT , DATATYPE ) : SUCCESS
Xcos debug:   propertyUpdated( 9 , PORT , DATATYPE ) : SUCCESS
Xcos trace:   propertyUpdated( 9 , PORT , DATATYPE ) : NO_CHANGES
Xcos trace:   propertyUpdated( 6 , BLOCK , STATE ) : NO_CHANGES
Xcos trace:   propertyUpdated( 6 , BLOCK , DSTATE ) : NO_CHANGES
Xcos trace:   propertyUpdated( 6 , BLOCK , ODSTATE ) : NO_CHANGES
Xcos debug:   propertyUpdated( 6 , BLOCK , RPAR ) : SUCCESS
Xcos debug:   propertyUpdated( 6 , BLOCK , IPAR ) : SUCCESS
Xcos trace:   propertyUpdated( 6 , BLOCK , OPAR ) : NO_CHANGES
Xcos trace:   propertyUpdated( 6 , BLOCK , SIM_BLOCKTYPE ) : NO_CHANGES
Xcos debug:   propertyUpdated( 6 , BLOCK , SIM_DEP_UT ) : SUCCESS
Xcos trace:   propertyUpdated( 6 , BLOCK , DESCRIPTION ) : NO_CHANGES
Xcos trace:   propertyUpdated( 6 , BLOCK , NZCROSS ) : NO_CHANGES
Xcos trace:   propertyUpdated( 6 , BLOCK , NMODE ) : NO_CHANGES
Xcos trace:   propertyUpdated( 6 , BLOCK , EQUATIONS ) : NO_CHANGES
Xcos trace:   objectUnreferenced( 6 , BLOCK ) : 0
Xcos debug:   propertyUpdated( 6 , BLOCK , INTERFACE_FUNCTION ) : SUCCESS
Xcos info:    objectCreated( 10 , BLOCK )
Xcos trace:   objectReferenced( 10 , BLOCK ) : 1
Xcos debug:   propertyUpdated( 10 , BLOCK , GEOMETRY ) : SUCCESS
Xcos debug:   propertyUpdated( 10 , BLOCK , GEOMETRY ) : SUCCESS
Xcos debug:   propertyUpdated( 10 , BLOCK , EXPRS ) : SUCCESS
Xcos info:    objectCreated( 11 , PORT )
Xcos debug:   propertyUpdated( 11 , PORT , SOURCE_BLOCK ) : SUCCESS
Xcos debug:   propertyUpdated( 11 , PORT , PORT_KIND ) : SUCCESS
Xcos trace:   propertyUpdated( 11 , PORT , CONNECTED_SIGNALS ) : NO_CHANGES
Xcos debug:   propertyUpdated( 10 , BLOCK , INPUTS ) : SUCCESS
Xcos info:    objectCreated( 12 , PORT )
Xcos debug:   propertyUpdated( 12 , PORT , SOURCE_BLOCK ) : SUCCESS
Xcos debug:   propertyUpdated( 12 , PORT , PORT_KIND ) : SUCCESS
Xcos trace:   propertyUpdated( 12 , PORT , CONNECTED_SIGNALS ) : NO_CHANGES
Xcos debug:   propertyUpdated( 10 , BLOCK , OUTPUTS ) : SUCCESS
Xcos trace:   propertyUpdated( 10 , BLOCK , DESCRIPTION ) : NO_CHANGES
Xcos trace:   propertyUpdated( 11 , PORT , IMPLICIT ) : NO_CHANGES
Xcos trace:   propertyUpdated( 12 , PORT , IMPLICIT ) : NO_CHANGES
Xcos trace:   objectUnreferenced( 10 , BLOCK ) : 0
Xcos trace:   objectReferenced( 10 , BLOCK ) : 1
Xcos debug:   propertyUpdated( 10 , BLOCK , SIM_FUNCTION_NAME ) : SUCCESS
Xcos trace:   propertyUpdated( 10 , BLOCK , SIM_FUNCTION_API ) : NO_CHANGES
Xcos debug:   propertyUpdated( 11 , PORT , DATATYPE ) : SUCCESS
Xcos trace:   propertyUpdated( 11 , PORT , DATATYPE ) : NO_CHANGES
Xcos debug:   propertyUpdated( 12 , PORT , DATATYPE ) : SUCCESS
Xcos trace:   propertyUpdated( 12 , PORT , DATATYPE ) : NO_CHANGES
Xcos trace:   propertyUpdated( 10 , BLOCK , STATE ) : NO_CHANGES
Xcos trace:   propertyUpdated( 10 , BLOCK , DSTATE ) : NO_CHANGES
Xcos trace:   propertyUpdated( 10 , BLOCK , ODSTATE ) : NO_CHANGES
Xcos debug:   propertyUpdated( 10 , BLOCK , RPAR ) : SUCCESS
Xcos trace:   propertyUpdated( 10 , BLOCK , IPAR ) : NO_CHANGES
Xcos trace:   propertyUpdated( 10 , BLOCK , OPAR ) : NO_CHANGES
Xcos trace:   propertyUpdated( 10 , BLOCK , SIM_BLOCKTYPE ) : NO_CHANGES
Xcos debug:   propertyUpdated( 10 , BLOCK , SIM_DEP_UT ) : SUCCESS
Xcos trace:   propertyUpdated( 10 , BLOCK , DESCRIPTION ) : NO_CHANGES
Xcos trace:   propertyUpdated( 10 , BLOCK , NZCROSS ) : NO_CHANGES
Xcos trace:   propertyUpdated( 10 , BLOCK , NMODE ) : NO_CHANGES
Xcos trace:   propertyUpdated( 10 , BLOCK , EQUATIONS ) : NO_CHANGES
Xcos trace:   objectUnreferenced( 10 , BLOCK ) : 0
Xcos debug:   propertyUpdated( 10 , BLOCK , INTERFACE_FUNCTION ) : SUCCESS
Xcos info:    objectCreated( 13 , BLOCK )
Xcos trace:   objectReferenced( 13 , BLOCK ) : 1
Xcos debug:   propertyUpdated( 13 , BLOCK , GEOMETRY ) : SUCCESS
Xcos debug:   propertyUpdated( 13 , BLOCK , GEOMETRY ) : SUCCESS
Xcos debug:   propertyUpdated( 13 , BLOCK , EXPRS ) : SUCCESS
Xcos info:    objectCreated( 14 , PORT )
Xcos debug:   propertyUpdated( 14 , PORT , SOURCE_BLOCK ) : SUCCESS
Xcos debug:   propertyUpdated( 14 , PORT , PORT_KIND ) : SUCCESS
Xcos trace:   propertyUpdated( 14 , PORT , CONNECTED_SIGNALS ) : NO_CHANGES
Xcos info:    objectCreated( 15 , PORT )
Xcos debug:   propertyUpdated( 15 , PORT , SOURCE_BLOCK ) : SUCCESS
Xcos debug:   propertyUpdated( 15 , PORT , PORT_KIND ) : SUCCESS
Xcos trace:   propertyUpdated( 15 , PORT , CONNECTED_SIGNALS ) : NO_CHANGES
Xcos debug:   propertyUpdated( 13 , BLOCK , INPUTS ) : SUCCESS
Xcos info:    objectCreated( 16 , PORT )
Xcos debug:   propertyUpdated( 16 , PORT , SOURCE_BLOCK ) : SUCCESS
Xcos debug:   propertyUpdated( 16 , PORT , PORT_KIND ) : SUCCESS
Xcos trace:   propertyUpdated( 16 , PORT , CONNECTED_SIGNALS ) : NO_CHANGES
Xcos debug:   propertyUpdated( 13 , BLOCK , OUTPUTS ) : SUCCESS
Xcos trace:   propertyUpdated( 13 , BLOCK , DESCRIPTION ) : NO_CHANGES
Xcos trace:   propertyUpdated( 14 , PORT , IMPLICIT ) : NO_CHANGES
Xcos trace:   propertyUpdated( 15 , PORT , IMPLICIT ) : NO_CHANGES
Xcos trace:   propertyUpdated( 16 , PORT , IMPLICIT ) : NO_CHANGES
Xcos trace:   objectUnreferenced( 13 , BLOCK ) : 0
Xcos trace:   objectReferenced( 13 , BLOCK ) : 1
Xcos debug:   propertyUpdated( 13 , BLOCK , SIM_FUNCTION_NAME ) : SUCCESS
Xcos debug:   propertyUpdated( 13 , BLOCK , SIM_FUNCTION_API ) : SUCCESS
Xcos debug:   propertyUpdated( 14 , PORT , DATATYPE ) : SUCCESS
Xcos debug:   propertyUpdated( 15 , PORT , DATATYPE ) : SUCCESS
Xcos debug:   propertyUpdated( 16 , PORT , DATATYPE ) : SUCCESS
Xcos trace:   propertyUpdated( 16 , PORT , DATATYPE ) : NO_CHANGES
Xcos trace:   propertyUpdated( 13 , BLOCK , STATE ) : NO_CHANGES
Xcos trace:   propertyUpdated( 13 , BLOCK , DSTATE ) : NO_CHANGES
Xcos trace:   propertyUpdated( 13 , BLOCK , ODSTATE ) : NO_CHANGES
Xcos debug:   propertyUpdated( 13 , BLOCK , RPAR ) : SUCCESS
Xcos debug:   propertyUpdated( 13 , BLOCK , IPAR ) : SUCCESS
Xcos trace:   propertyUpdated( 13 , BLOCK , OPAR ) : NO_CHANGES
Xcos trace:   propertyUpdated( 13 , BLOCK , SIM_BLOCKTYPE ) : NO_CHANGES
Xcos debug:   propertyUpdated( 13 , BLOCK , SIM_DEP_UT ) : SUCCESS
Xcos trace:   propertyUpdated( 13 , BLOCK , DESCRIPTION ) : NO_CHANGES
Xcos trace:   propertyUpdated( 13 , BLOCK , NZCROSS ) : NO_CHANGES
Xcos trace:   propertyUpdated( 13 , BLOCK , NMODE ) : NO_CHANGES
Xcos trace:   propertyUpdated( 13 , BLOCK , EQUATIONS ) : NO_CHANGES
Xcos trace:   objectUnreferenced( 13 , BLOCK ) : 0
Xcos debug:   propertyUpdated( 13 , BLOCK , INTERFACE_FUNCTION ) : SUCCESS
Xcos trace:   objectReferenced( 3 , BLOCK ) : 1
Xcos trace:   propertyUpdated( 3 , BLOCK , PARENT_DIAGRAM ) : NO_CHANGES
Xcos debug:   propertyUpdated( 3 , BLOCK , PARENT_BLOCK ) : SUCCESS
Xcos trace:   objectReferenced( 6 , BLOCK ) : 1
Xcos trace:   propertyUpdated( 6 , BLOCK , PARENT_DIAGRAM ) : NO_CHANGES
Xcos debug:   propertyUpdated( 6 , BLOCK , PARENT_BLOCK ) : SUCCESS
Xcos trace:   objectReferenced( 10 , BLOCK ) : 1
Xcos trace:   propertyUpdated( 10 , BLOCK , PARENT_DIAGRAM ) : NO_CHANGES
Xcos debug:   propertyUpdated( 10 , BLOCK , PARENT_BLOCK ) : SUCCESS
Xcos trace:   objectReferenced( 13 , BLOCK ) : 1
Xcos trace:   propertyUpdated( 13 , BLOCK , PARENT_DIAGRAM ) : NO_CHANGES
Xcos debug:   propertyUpdated( 13 , BLOCK , PARENT_BLOCK ) : SUCCESS
Xcos debug:   propertyUpdated( 2 , BLOCK , CHILDREN ) : SUCCESS
Xcos trace:   objectUnreferenced( 3 , BLOCK ) : 0
Xcos trace:   objectUnreferenced( 6 , BLOCK ) : 0
Xcos trace:   objectUnreferenced( 10 , BLOCK ) : 0
Xcos trace:   objectUnreferenced( 13 , BLOCK ) : 0
Xcos trace:   objectUnreferenced( 2 , BLOCK ) : 1
Xcos trace:   propertyUpdated( 2 , BLOCK , IPAR ) : NO_CHANGES
Xcos trace:   propertyUpdated( 2 , BLOCK , OPAR ) : NO_CHANGES
Xcos debug:   propertyUpdated( 2 , BLOCK , SIM_BLOCKTYPE ) : SUCCESS
Xcos trace:   propertyUpdated( 2 , BLOCK , SIM_DEP_UT ) : NO_CHANGES
Xcos debug:   propertyUpdated( 2 , BLOCK , DESCRIPTION ) : SUCCESS
Xcos trace:   propertyUpdated( 2 , BLOCK , NZCROSS ) : NO_CHANGES
Xcos trace:   propertyUpdated( 2 , BLOCK , NMODE ) : NO_CHANGES
Xcos trace:   propertyUpdated( 2 , BLOCK , EQUATIONS ) : NO_CHANGES
Xcos trace:   propertyUpdated( 2 , BLOCK , UID ) : NO_CHANGES
Xcos trace:   objectUnreferenced( 2 , BLOCK ) : 0
Xcos debug:   propertyUpdated( 2 , BLOCK , INTERFACE_FUNCTION ) : SUCCESS
Xcos info:    objectCreated( 17 , BLOCK )
Xcos info:    objectCloned( 2 , 17 , BLOCK )
Xcos trace:   propertyUpdated( 17 , BLOCK , SIM_FUNCTION_API ) : NO_CHANGES
Xcos trace:   propertyUpdated( 17 , BLOCK , DESCRIPTION ) : NO_CHANGES
Xcos debug:   propertyUpdated( 17 , BLOCK , INTERFACE_FUNCTION ) : SUCCESS
Xcos debug:   propertyUpdated( 17 , BLOCK , SIM_FUNCTION_NAME ) : SUCCESS
Xcos debug:   propertyUpdated( 17 , BLOCK , SIM_BLOCKTYPE ) : SUCCESS
Xcos trace:   propertyUpdated( 17 , BLOCK , UID ) : NO_CHANGES
Xcos trace:   propertyUpdated( 17 , BLOCK , STYLE ) : NO_CHANGES
Xcos debug:   propertyUpdated( 17 , BLOCK , GEOMETRY ) : SUCCESS
Xcos trace:   propertyUpdated( 17 , BLOCK , EXPRS ) : NO_CHANGES
Xcos trace:   propertyUpdated( 17 , BLOCK , STATE ) : NO_CHANGES
Xcos trace:   propertyUpdated( 17 , BLOCK , DSTATE ) : NO_CHANGES
Xcos trace:   propertyUpdated( 17 , BLOCK , ODSTATE ) : NO_CHANGES
Xcos trace:   propertyUpdated( 17 , BLOCK , RPAR ) : NO_CHANGES
Xcos trace:   propertyUpdated( 17 , BLOCK , OPAR ) : NO_CHANGES
Xcos trace:   propertyUpdated( 17 , BLOCK , EQUATIONS ) : NO_CHANGES
Xcos trace:   propertyUpdated( 17 , BLOCK , SIM_DEP_UT ) : NO_CHANGES
Xcos trace:   propertyUpdated( 17 , BLOCK , NZCROSS ) : NO_CHANGES
Xcos trace:   propertyUpdated( 17 , BLOCK , NMODE ) : NO_CHANGES
Xcos trace:   propertyUpdated( 17 , BLOCK , IPAR ) : NO_CHANGES
Xcos trace:   propertyUpdated( 17 , BLOCK , COLOR ) : NO_CHANGES
Xcos trace:   propertyUpdated( 17 , BLOCK , CONTEXT ) : NO_CHANGES
Xcos trace:   propertyUpdated( 17 , BLOCK , PARENT_DIAGRAM ) : NO_CHANGES
Xcos trace:   propertyUpdated( 17 , BLOCK , INPUTS ) : NO_CHANGES
Xcos trace:   propertyUpdated( 17 , BLOCK , OUTPUTS ) : NO_CHANGES
Xcos trace:   propertyUpdated( 17 , BLOCK , EVENT_INPUTS ) : NO_CHANGES
Xcos trace:   propertyUpdated( 17 , BLOCK , EVENT_OUTPUTS ) : NO_CHANGES
Xcos trace:   propertyUpdated( 17 , BLOCK , PARENT_BLOCK ) : NO_CHANGES
Xcos info:    objectCreated( 18 , BLOCK )
Xcos info:    objectCloned( 3 , 18 , BLOCK )
Xcos debug:   propertyUpdated( 18 , BLOCK , SIM_FUNCTION_API ) : SUCCESS
Xcos trace:   propertyUpdated( 18 , BLOCK , DESCRIPTION ) : NO_CHANGES
Xcos debug:   propertyUpdated( 18 , BLOCK , INTERFACE_FUNCTION ) : SUCCESS
Xcos debug:   propertyUpdated( 18 , BLOCK , SIM_FUNCTION_NAME ) : SUCCESS
Xcos trace:   propertyUpdated( 18 , BLOCK , SIM_BLOCKTYPE ) : NO_CHANGES
Xcos trace:   propertyUpdated( 18 , BLOCK , UID ) : NO_CHANGES
Xcos trace:   propertyUpdated( 18 , BLOCK , STYLE ) : NO_CHANGES
Xcos debug:   propertyUpdated( 18 , BLOCK , GEOMETRY ) : SUCCESS
Xcos debug:   propertyUpdated( 18 , BLOCK , EXPRS ) : SUCCESS
Xcos trace:   propertyUpdated( 18 , BLOCK , STATE ) : NO_CHANGES
Xcos trace:   propertyUpdated( 18 , BLOCK , DSTATE ) : NO_CHANGES
Xcos trace:   propertyUpdated( 18 , BLOCK , ODSTATE ) : NO_CHANGES
Xcos debug:   propertyUpdated( 18 , BLOCK , RPAR ) : SUCCESS
Xcos trace:   propertyUpdated( 18 , BLOCK , OPAR ) : NO_CHANGES
Xcos trace:   propertyUpdated( 18 , BLOCK , EQUATIONS ) : NO_CHANGES
Xcos debug:   propertyUpdated( 18 , BLOCK , SIM_DEP_UT ) : SUCCESS
Xcos trace:   propertyUpdated( 18 , BLOCK , NZCROSS ) : NO_CHANGES
Xcos trace:   propertyUpdated( 18 , BLOCK , NMODE ) : NO_CHANGES
Xcos debug:   propertyUpdated( 18 , BLOCK , IPAR ) : SUCCESS
Xcos trace:   propertyUpdated( 18 , BLOCK , COLOR ) : NO_CHANGES
Xcos trace:   propertyUpdated( 18 , BLOCK , CONTEXT ) : NO_CHANGES
Xcos trace:   propertyUpdated( 18 , BLOCK , PARENT_DIAGRAM ) : NO_CHANGES
Xcos info:    objectCreated( 19 , PORT )
Xcos info:    objectCloned( 4 , 19 , PORT )
Xcos trace:   propertyUpdated( 19 , PORT , FIRING ) : NO_CHANGES
Xcos debug:   propertyUpdated( 19 , PORT , PORT_KIND ) : SUCCESS
Xcos trace:   propertyUpdated( 19 , PORT , IMPLICIT ) : NO_CHANGES
Xcos trace:   propertyUpdated( 19 , PORT , UID ) : NO_CHANGES
Xcos trace:   propertyUpdated( 19 , PORT , STYLE ) : NO_CHANGES
Xcos trace:   propertyUpdated( 19 , PORT , LABEL ) : NO_CHANGES
Xcos debug:   propertyUpdated( 19 , PORT , DATATYPE ) : SUCCESS
Xcos debug:   propertyUpdated( 19 , PORT , SOURCE_BLOCK ) : SUCCESS
Xcos trace:   propertyUpdated( 19 , PORT , CONNECTED_SIGNALS ) : NO_CHANGES
Xcos debug:   propertyUpdated( 18 , BLOCK , INPUTS ) : SUCCESS
Xcos info:    objectCreated( 20 , PORT )
Xcos info:    objectCloned( 5 , 20 , PORT )
Xcos trace:   propertyUpdated( 20 , PORT , FIRING ) : NO_CHANGES
Xcos debug:   propertyUpdated( 20 , PORT , PORT_KIND ) : SUCCESS
Xcos trace:   propertyUpdated( 20 , PORT , IMPLICIT ) : NO_CHANGES
Xcos trace:   propertyUpdated( 20 , PORT , UID ) : NO_CHANGES
Xcos trace:   propertyUpdated( 20 , PORT , STYLE ) : NO_CHANGES
Xcos trace:   propertyUpdated( 20 , PORT , LABEL ) : NO_CHANGES
Xcos debug:   propertyUpdated( 20 , PORT , DATATYPE ) : SUCCESS
Xcos debug:   propertyUpdated( 20 , PORT , SOURCE_BLOCK ) : SUCCESS
Xcos trace:   propertyUpdated( 20 , PORT , CONNECTED_SIGNALS ) : NO_CHANGES
Xcos debug:   propertyUpdated( 18 , BLOCK , OUTPUTS ) : SUCCESS
Xcos trace:   propertyUpdated( 18 , BLOCK , EVENT_INPUTS ) : NO_CHANGES
Xcos trace:   propertyUpdated( 18 , BLOCK , EVENT_OUTPUTS ) : NO_CHANGES
Xcos debug:   propertyUpdated( 18 , BLOCK , PARENT_BLOCK ) : SUCCESS
Xcos trace:   propertyUpdated( 19 , PORT , CONNECTED_SIGNALS ) : NO_CHANGES
Xcos trace:   propertyUpdated( 20 , PORT , CONNECTED_SIGNALS ) : NO_CHANGES
Xcos trace:   propertyUpdated( 18 , BLOCK , CHILDREN ) : NO_CHANGES
Xcos info:    objectCreated( 21 , BLOCK )
Xcos info:    objectCloned( 6 , 21 , BLOCK )
Xcos debug:   propertyUpdated( 21 , BLOCK , SIM_FUNCTION_API ) : SUCCESS
Xcos trace:   propertyUpdated( 21 , BLOCK , DESCRIPTION ) : NO_CHANGES
Xcos debug:   propertyUpdated( 21 , BLOCK , INTERFACE_FUNCTION ) : SUCCESS
Xcos debug:   propertyUpdated( 21 , BLOCK , SIM_FUNCTION_NAME ) : SUCCESS
Xcos trace:   propertyUpdated( 21 , BLOCK , SIM_BLOCKTYPE ) : NO_CHANGES
Xcos trace:   propertyUpdated( 21 , BLOCK , UID ) : NO_CHANGES
Xcos trace:   propertyUpdated( 21 , BLOCK , STYLE ) : NO_CHANGES
Xcos debug:   propertyUpdated( 21 , BLOCK , GEOMETRY ) : SUCCESS
Xcos debug:   propertyUpdated( 21 , BLOCK , EXPRS ) : SUCCESS
Xcos trace:   propertyUpdated( 21 , BLOCK , STATE ) : NO_CHANGES
Xcos trace:   propertyUpdated( 21 , BLOCK , DSTATE ) : NO_CHANGES
Xcos trace:   propertyUpdated( 21 , BLOCK , ODSTATE ) : NO_CHANGES
Xcos debug:   propertyUpdated( 21 , BLOCK , RPAR ) : SUCCESS
Xcos trace:   propertyUpdated( 21 , BLOCK , OPAR ) : NO_CHANGES
Xcos trace:   propertyUpdated( 21 , BLOCK , EQUATIONS ) : NO_CHANGES
Xcos debug:   propertyUpdated( 21 , BLOCK , SIM_DEP_UT ) : SUCCESS
Xcos trace:   propertyUpdated( 21 , BLOCK , NZCROSS ) : NO_CHANGES
Xcos trace:   propertyUpdated( 21 , BLOCK , NMODE ) : NO_CHANGES
Xcos debug:   propertyUpdated( 21 , BLOCK , IPAR ) : SUCCESS
Xcos trace:   propertyUpdated( 21 , BLOCK , COLOR ) : NO_CHANGES
Xcos trace:   propertyUpdated( 21 , BLOCK , CONTEXT ) : NO_CHANGES
Xcos trace:   propertyUpdated( 21 , BLOCK , PARENT_DIAGRAM ) : NO_CHANGES
Xcos info:    objectCreated( 22 , PORT )
Xcos info:    objectCloned( 7 , 22 , PORT )
Xcos trace:   propertyUpdated( 22 , PORT , FIRING ) : NO_CHANGES
Xcos debug:   propertyUpdated( 22 , PORT , PORT_KIND ) : SUCCESS
Xcos trace:   propertyUpdated( 22 , PORT , IMPLICIT ) : NO_CHANGES
Xcos trace:   propertyUpdated( 22 , PORT , UID ) : NO_CHANGES
Xcos trace:   propertyUpdated( 22 , PORT , STYLE ) : NO_CHANGES
Xcos trace:   propertyUpdated( 22 , PORT , LABEL ) : NO_CHANGES
Xcos debug:   propertyUpdated( 22 , PORT , DATATYPE ) : SUCCESS
Xcos debug:   propertyUpdated( 22 , PORT , SOURCE_BLOCK ) : SUCCESS
Xcos trace:   propertyUpdated( 22 , PORT , CONNECTED_SIGNALS ) : NO_CHANGES
Xcos info:    objectCreated( 23 , PORT )
Xcos info:    objectCloned( 8 , 23 , PORT )
Xcos trace:   propertyUpdated( 23 , PORT , FIRING ) : NO_CHANGES
Xcos debug:   propertyUpdated( 23 , PORT , PORT_KIND ) : SUCCESS
Xcos trace:   propertyUpdated( 23 , PORT , IMPLICIT ) : NO_CHANGES
Xcos trace:   propertyUpdated( 23 , PORT , UID ) : NO_CHANGES
Xcos trace:   propertyUpdated( 23 , PORT , STYLE ) : NO_CHANGES
Xcos trace:   propertyUpdated( 23 , PORT , LABEL ) : NO_CHANGES
Xcos debug:   propertyUpdated( 23 , PORT , DATATYPE ) : SUCCESS
Xcos debug:   propertyUpdated( 23 , PORT , SOURCE_BLOCK ) : SUCCESS
Xcos trace:   propertyUpdated( 23 , PORT , CONNECTED_SIGNALS ) : NO_CHANGES
Xcos debug:   propertyUpdated( 21 , BLOCK , INPUTS ) : SUCCESS
Xcos info:    objectCreated( 24 , PORT )
Xcos info:    objectCloned( 9 , 24 , PORT )
Xcos trace:   propertyUpdated( 24 , PORT , FIRING ) : NO_CHANGES
Xcos debug:   propertyUpdated( 24 , PORT , PORT_KIND ) : SUCCESS
Xcos trace:   propertyUpdated( 24 , PORT , IMPLICIT ) : NO_CHANGES
Xcos trace:   propertyUpdated( 24 , PORT , UID ) : NO_CHANGES
Xcos trace:   propertyUpdated( 24 , PORT , STYLE ) : NO_CHANGES
Xcos trace:   propertyUpdated( 24 , PORT , LABEL ) : NO_CHANGES
Xcos debug:   propertyUpdated( 24 , PORT , DATATYPE ) : SUCCESS
Xcos debug:   propertyUpdated( 24 , PORT , SOURCE_BLOCK ) : SUCCESS
Xcos trace:   propertyUpdated( 24 , PORT , CONNECTED_SIGNALS ) : NO_CHANGES
Xcos debug:   propertyUpdated( 21 , BLOCK , OUTPUTS ) : SUCCESS
Xcos trace:   propertyUpdated( 21 , BLOCK , EVENT_INPUTS ) : NO_CHANGES
Xcos trace:   propertyUpdated( 21 , BLOCK , EVENT_OUTPUTS ) : NO_CHANGES
Xcos debug:   propertyUpdated( 21 , BLOCK , PARENT_BLOCK ) : SUCCESS
Xcos trace:   propertyUpdated( 19 , PORT , CONNECTED_SIGNALS ) : NO_CHANGES
Xcos trace:   propertyUpdated( 20 , PORT , CONNECTED_SIGNALS ) : NO_CHANGES
Xcos trace:   propertyUpdated( 22 , PORT , CONNECTED_SIGNALS ) : NO_CHANGES
Xcos trace:   propertyUpdated( 23 , PORT , CONNECTED_SIGNALS ) : NO_CHANGES
Xcos trace:   propertyUpdated( 24 , PORT , CONNECTED_SIGNALS ) : NO_CHANGES
Xcos trace:   propertyUpdated( 21 , BLOCK , CHILDREN ) : NO_CHANGES
Xcos info:    objectCreated( 25 , BLOCK )
Xcos info:    objectCloned( 10 , 25 , BLOCK )
Xcos trace:   propertyUpdated( 25 , BLOCK , SIM_FUNCTION_API ) : NO_CHANGES
Xcos trace:   propertyUpdated( 25 , BLOCK , DESCRIPTION ) : NO_CHANGES
Xcos debug:   propertyUpdated( 25 , BLOCK , INTERFACE_FUNCTION ) : SUCCESS
Xcos debug:   propertyUpdated( 25 , BLOCK , SIM_FUNCTION_NAME ) : SUCCESS
Xcos trace:   propertyUpdated( 25 , BLOCK , SIM_BLOCKTYPE ) : NO_CHANGES
Xcos trace:   propertyUpdated( 25 , BLOCK , UID ) : NO_CHANGES
Xcos trace:   propertyUpdated( 25 , BLOCK , STYLE ) : NO_CHANGES
Xcos debug:   propertyUpdated( 25 , BLOCK , GEOMETRY ) : SUCCESS
Xcos debug:   propertyUpdated( 25 , BLOCK , EXPRS ) : SUCCESS
Xcos trace:   propertyUpdated( 25 , BLOCK , STATE ) : NO_CHANGES
Xcos trace:   propertyUpdated( 25 , BLOCK , DSTATE ) : NO_CHANGES
Xcos trace:   propertyUpdated( 25 , BLOCK , ODSTATE ) : NO_CHANGES
Xcos debug:   propertyUpdated( 25 , BLOCK , RPAR ) : SUCCESS
Xcos trace:   propertyUpdated( 25 , BLOCK , OPAR ) : NO_CHANGES
Xcos trace:   propertyUpdated( 25 , BLOCK , EQUATIONS ) : NO_CHANGES
Xcos debug:   propertyUpdated( 25 , BLOCK , SIM_DEP_UT ) : SUCCESS
Xcos trace:   propertyUpdated( 25 , BLOCK , NZCROSS ) : NO_CHANGES
Xcos trace:   propertyUpdated( 25 , BLOCK , NMODE ) : NO_CHANGES
Xcos trace:   propertyUpdated( 25 , BLOCK , IPAR ) : NO_CHANGES
Xcos trace:   propertyUpdated( 25 , BLOCK , COLOR ) : NO_CHANGES
Xcos trace:   propertyUpdated( 25 , BLOCK , CONTEXT ) : NO_CHANGES
Xcos trace:   propertyUpdated( 25 , BLOCK , PARENT_DIAGRAM ) : NO_CHANGES
Xcos info:    objectCreated( 26 , PORT )
Xcos info:    objectCloned( 11 , 26 , PORT )
Xcos trace:   propertyUpdated( 26 , PORT , FIRING ) : NO_CHANGES
Xcos debug:   propertyUpdated( 26 , PORT , PORT_KIND ) : SUCCESS
Xcos trace:   propertyUpdated( 26 , PORT , IMPLICIT ) : NO_CHANGES
Xcos trace:   propertyUpdated( 26 , PORT , UID ) : NO_CHANGES
Xcos trace:   propertyUpdated( 26 , PORT , STYLE ) : NO_CHANGES
Xcos trace:   propertyUpdated( 26 , PORT , LABEL ) : NO_CHANGES
Xcos debug:   propertyUpdated( 26 , PORT , DATATYPE ) : SUCCESS
Xcos debug:   propertyUpdated( 26 , PORT , SOURCE_BLOCK ) : SUCCESS
Xcos trace:   propertyUpdated( 26 , PORT , CONNECTED_SIGNALS ) : NO_CHANGES
Xcos debug:   propertyUpdated( 25 , BLOCK , INPUTS ) : SUCCESS
Xcos info:    objectCreated( 27 , PORT )
Xcos info:    objectCloned( 12 , 27 , PORT )
Xcos trace:   propertyUpdated( 27 , PORT , FIRING ) : NO_CHANGES
Xcos debug:   propertyUpdated( 27 , PORT , PORT_KIND ) : SUCCESS
Xcos trace:   propertyUpdated( 27 , PORT , IMPLICIT ) : NO_CHANGES
Xcos trace:   propertyUpdated( 27 , PORT , UID ) : NO_CHANGES
Xcos trace:   propertyUpdated( 27 , PORT , STYLE ) : NO_CHANGES
Xcos trace:   propertyUpdated( 27 , PORT , LABEL ) : NO_CHANGES
Xcos debug:   propertyUpdated( 27 , PORT , DATATYPE ) : SUCCESS
Xcos debug:   propertyUpdated( 27 , PORT , SOURCE_BLOCK ) : SUCCESS
Xcos trace:   propertyUpdated( 27 , PORT , CONNECTED_SIGNALS ) : NO_CHANGES
Xcos debug:   propertyUpdated( 25 , BLOCK , OUTPUTS ) : SUCCESS
Xcos trace:   propertyUpdated( 25 , BLOCK , EVENT_INPUTS ) : NO_CHANGES
Xcos trace:   propertyUpdated( 25 , BLOCK , EVENT_OUTPUTS ) : NO_CHANGES
Xcos debug:   propertyUpdated( 25 , BLOCK , PARENT_BLOCK ) : SUCCESS
Xcos trace:   propertyUpdated( 19 , PORT , CONNECTED_SIGNALS ) : NO_CHANGES
Xcos trace:   propertyUpdated( 20 , PORT , CONNECTED_SIGNALS ) : NO_CHANGES
Xcos trace:   propertyUpdated( 22 , PORT , CONNECTED_SIGNALS ) : NO_CHANGES
Xcos trace:   propertyUpdated( 23 , PORT , CONNECTED_SIGNALS ) : NO_CHANGES
Xcos trace:   propertyUpdated( 24 , PORT , CONNECTED_SIGNALS ) : NO_CHANGES
Xcos trace:   propertyUpdated( 26 , PORT , CONNECTED_SIGNALS ) : NO_CHANGES
Xcos trace:   propertyUpdated( 27 , PORT , CONNECTED_SIGNALS ) : NO_CHANGES
Xcos trace:   propertyUpdated( 25 , BLOCK , CHILDREN ) : NO_CHANGES
Xcos info:    objectCreated( 28 , BLOCK )
Xcos info:    objectCloned( 13 , 28 , BLOCK )
Xcos debug:   propertyUpdated( 28 , BLOCK , SIM_FUNCTION_API ) : SUCCESS
Xcos trace:   propertyUpdated( 28 , BLOCK , DESCRIPTION ) : NO_CHANGES
Xcos debug:   propertyUpdated( 28 , BLOCK , INTERFACE_FUNCTION ) : SUCCESS
Xcos debug:   propertyUpdated( 28 , BLOCK , SIM_FUNCTION_NAME ) : SUCCESS
Xcos trace:   propertyUpdated( 28 , BLOCK , SIM_BLOCKTYPE ) : NO_CHANGES
Xcos trace:   propertyUpdated( 28 , BLOCK , UID ) : NO_CHANGES
Xcos trace:   propertyUpdated( 28 , BLOCK , STYLE ) : NO_CHANGES
Xcos debug:   propertyUpdated( 28 , BLOCK , GEOMETRY ) : SUCCESS
Xcos debug:   propertyUpdated( 28 , BLOCK , EXPRS ) : SUCCESS
Xcos trace:   propertyUpdated( 28 , BLOCK , STATE ) : NO_CHANGES
Xcos trace:   propertyUpdated( 28 , BLOCK , DSTATE ) : NO_CHANGES
Xcos trace:   propertyUpdated( 28 , BLOCK , ODSTATE ) : NO_CHANGES
Xcos debug:   propertyUpdated( 28 , BLOCK , RPAR ) : SUCCESS
Xcos trace:   propertyUpdated( 28 , BLOCK , OPAR ) : NO_CHANGES
Xcos trace:   propertyUpdated( 28 , BLOCK , EQUATIONS ) : NO_CHANGES
Xcos debug:   propertyUpdated( 28 , BLOCK , SIM_DEP_UT ) : SUCCESS
Xcos trace:   propertyUpdated( 28 , BLOCK , NZCROSS ) : NO_CHANGES
Xcos trace:   propertyUpdated( 28 , BLOCK , NMODE ) : NO_CHANGES
Xcos debug:   propertyUpdated( 28 , BLOCK , IPAR ) : SUCCESS
Xcos trace:   propertyUpdated( 28 , BLOCK , COLOR ) : NO_CHANGES
Xcos trace:   propertyUpdated( 28 , BLOCK , CONTEXT ) : NO_CHANGES
Xcos trace:   propertyUpdated( 28 , BLOCK , PARENT_DIAGRAM ) : NO_CHANGES
Xcos info:    objectCreated( 29 , PORT )
Xcos info:    objectCloned( 14 , 29 , PORT )
Xcos trace:   propertyUpdated( 29 , PORT , FIRING ) : NO_CHANGES
Xcos debug:   propertyUpdated( 29 , PORT , PORT_KIND ) : SUCCESS
Xcos trace:   propertyUpdated( 29 , PORT , IMPLICIT ) : NO_CHANGES
Xcos trace:   propertyUpdated( 29 , PORT , UID ) : NO_CHANGES
Xcos trace:   propertyUpdated( 29 , PORT , STYLE ) : NO_CHANGES
Xcos trace:   propertyUpdated( 29 , PORT , LABEL ) : NO_CHANGES
Xcos debug:   propertyUpdated( 29 , PORT , DATATYPE ) : SUCCESS
Xcos debug:   propertyUpdated( 29 , PORT , SOURCE_BLOCK ) : SUCCESS
Xcos trace:   propertyUpdated( 29 , PORT , CONNECTED_SIGNALS ) : NO_CHANGES
Xcos info:    objectCreated( 30 , PORT )
Xcos info:    objectCloned( 15 , 30 , PORT )
Xcos trace:   propertyUpdated( 30 , PORT , FIRING ) : NO_CHANGES
Xcos debug:   propertyUpdated( 30 , PORT , PORT_KIND ) : SUCCESS
Xcos trace:   propertyUpdated( 30 , PORT , IMPLICIT ) : NO_CHANGES
Xcos trace:   propertyUpdated( 30 , PORT , UID ) : NO_CHANGES
Xcos trace:   propertyUpdated( 30 , PORT , STYLE ) : NO_CHANGES
Xcos trace:   propertyUpdated( 30 , PORT , LABEL ) : NO_CHANGES
Xcos debug:   propertyUpdated( 30 , PORT , DATATYPE ) : SUCCESS
Xcos debug:   propertyUpdated( 30 , PORT , SOURCE_BLOCK ) : SUCCESS
Xcos trace:   propertyUpdated( 30 , PORT , CONNECTED_SIGNALS ) : NO_CHANGES
Xcos debug:   propertyUpdated( 28 , BLOCK , INPUTS ) : SUCCESS
Xcos info:    objectCreated( 31 , PORT )
Xcos info:    objectCloned( 16 , 31 , PORT )
Xcos trace:   propertyUpdated( 31 , PORT , FIRING ) : NO_CHANGES
Xcos debug:   propertyUpdated( 31 , PORT , PORT_KIND ) : SUCCESS
Xcos trace:   propertyUpdated( 31 , PORT , IMPLICIT ) : NO_CHANGES
Xcos trace:   propertyUpdated( 31 , PORT , UID ) : NO_CHANGES
Xcos trace:   propertyUpdated( 31 , PORT , STYLE ) : NO_CHANGES
Xcos trace:   propertyUpdated( 31 , PORT , LABEL ) : NO_CHANGES
Xcos debug:   propertyUpdated( 31 , PORT , DATATYPE ) : SUCCESS
Xcos debug:   propertyUpdated( 31 , PORT , SOURCE_BLOCK ) : SUCCESS
Xcos trace:   propertyUpdated( 31 , PORT , CONNECTED_SIGNALS ) : NO_CHANGES
Xcos debug:   propertyUpdated( 28 , BLOCK , OUTPUTS ) : SUCCESS
Xcos trace:   propertyUpdated( 28 , BLOCK , EVENT_INPUTS ) : NO_CHANGES
Xcos trace:   propertyUpdated( 28 , BLOCK , EVENT_OUTPUTS ) : NO_CHANGES
Xcos debug:   propertyUpdated( 28 , BLOCK , PARENT_BLOCK ) : SUCCESS
Xcos trace:   propertyUpdated( 19 , PORT , CONNECTED_SIGNALS ) : NO_CHANGES
Xcos trace:   propertyUpdated( 20 , PORT , CONNECTED_SIGNALS ) : NO_CHANGES
Xcos trace:   propertyUpdated( 22 , PORT , CONNECTED_SIGNALS ) : NO_CHANGES
Xcos trace:   propertyUpdated( 23 , PORT , CONNECTED_SIGNALS ) : NO_CHANGES
Xcos trace:   propertyUpdated( 24 , PORT , CONNECTED_SIGNALS ) : NO_CHANGES
Xcos trace:   propertyUpdated( 26 , PORT , CONNECTED_SIGNALS ) : NO_CHANGES
Xcos trace:   propertyUpdated( 27 , PORT , CONNECTED_SIGNALS ) : NO_CHANGES
Xcos trace:   propertyUpdated( 29 , PORT , CONNECTED_SIGNALS ) : NO_CHANGES
Xcos trace:   propertyUpdated( 30 , PORT , CONNECTED_SIGNALS ) : NO_CHANGES
Xcos trace:   propertyUpdated( 31 , PORT , CONNECTED_SIGNALS ) : NO_CHANGES
Xcos trace:   propertyUpdated( 28 , BLOCK , CHILDREN ) : NO_CHANGES
Xcos trace:   propertyUpdated( 19 , PORT , CONNECTED_SIGNALS ) : NO_CHANGES
Xcos trace:   propertyUpdated( 20 , PORT , CONNECTED_SIGNALS ) : NO_CHANGES
Xcos trace:   propertyUpdated( 22 , PORT , CONNECTED_SIGNALS ) : NO_CHANGES
Xcos trace:   propertyUpdated( 23 , PORT , CONNECTED_SIGNALS ) : NO_CHANGES
Xcos trace:   propertyUpdated( 24 , PORT , CONNECTED_SIGNALS ) : NO_CHANGES
Xcos trace:   propertyUpdated( 26 , PORT , CONNECTED_SIGNALS ) : NO_CHANGES
Xcos trace:   propertyUpdated( 27 , PORT , CONNECTED_SIGNALS ) : NO_CHANGES
Xcos trace:   propertyUpdated( 29 , PORT , CONNECTED_SIGNALS ) : NO_CHANGES
Xcos trace:   propertyUpdated( 30 , PORT , CONNECTED_SIGNALS ) : NO_CHANGES
Xcos trace:   propertyUpdated( 31 , PORT , CONNECTED_SIGNALS ) : NO_CHANGES
Xcos debug:   propertyUpdated( 17 , BLOCK , CHILDREN ) : SUCCESS
Xcos trace:   objectReferenced( 17 , BLOCK ) : 1
Xcos debug:   propertyUpdated( 17 , BLOCK , PARENT_DIAGRAM ) : SUCCESS
Xcos trace:   propertyUpdated( 17 , BLOCK , PARENT_BLOCK ) : NO_CHANGES
Xcos debug:   propertyUpdated( 1 , DIAGRAM , CHILDREN ) : SUCCESS
Xcos trace:   objectUnreferenced( 17 , BLOCK ) : 0
Xcos debug:   propertyUpdated( 2 , BLOCK , CHILDREN ) : SUCCESS
Xcos debug:   propertyUpdated( 3 , BLOCK , INPUTS ) : SUCCESS
Xcos trace:   propertyUpdated( 3 , BLOCK , OUTPUTS ) : NO_CHANGES
Xcos trace:   propertyUpdated( 3 , BLOCK , EVENT_INPUTS ) : NO_CHANGES
Xcos trace:   propertyUpdated( 3 , BLOCK , EVENT_OUTPUTS ) : NO_CHANGES
Xcos info:    objectDeleted( 4 , PORT )
Xcos trace:   propertyUpdated( 3 , BLOCK , INPUTS ) : NO_CHANGES
Xcos debug:   propertyUpdated( 3 , BLOCK , OUTPUTS ) : SUCCESS
Xcos trace:   propertyUpdated( 3 , BLOCK , EVENT_INPUTS ) : NO_CHANGES
Xcos trace:   propertyUpdated( 3 , BLOCK , EVENT_OUTPUTS ) : NO_CHANGES
Xcos info:    objectDeleted( 5 , PORT )
Xcos info:    objectDeleted( 3 , BLOCK )
Xcos debug:   propertyUpdated( 2 , BLOCK , CHILDREN ) : SUCCESS
Xcos debug:   propertyUpdated( 6 , BLOCK , INPUTS ) : SUCCESS
Xcos trace:   propertyUpdated( 6 , BLOCK , OUTPUTS ) : NO_CHANGES
Xcos trace:   propertyUpdated( 6 , BLOCK , EVENT_INPUTS ) : NO_CHANGES
Xcos trace:   propertyUpdated( 6 , BLOCK , EVENT_OUTPUTS ) : NO_CHANGES
Xcos info:    objectDeleted( 7 , PORT )
Xcos debug:   propertyUpdated( 6 , BLOCK , INPUTS ) : SUCCESS
Xcos trace:   propertyUpdated( 6 , BLOCK , OUTPUTS ) : NO_CHANGES
Xcos trace:   propertyUpdated( 6 , BLOCK , EVENT_INPUTS ) : NO_CHANGES
Xcos trace:   propertyUpdated( 6 , BLOCK , EVENT_OUTPUTS ) : NO_CHANGES
Xcos info:    objectDeleted( 8 , PORT )
Xcos trace:   propertyUpdated( 6 , BLOCK , INPUTS ) : NO_CHANGES
Xcos debug:   propertyUpdated( 6 , BLOCK , OUTPUTS ) : SUCCESS
Xcos trace:   propertyUpdated( 6 , BLOCK , EVENT_INPUTS ) : NO_CHANGES
Xcos trace:   propertyUpdated( 6 , BLOCK , EVENT_OUTPUTS ) : NO_CHANGES
Xcos info:    objectDeleted( 9 , PORT )
Xcos info:    objectDeleted( 6 , BLOCK )
Xcos debug:   propertyUpdated( 2 , BLOCK , CHILDREN ) : SUCCESS
Xcos debug:   propertyUpdated( 10 , BLOCK , INPUTS ) : SUCCESS
Xcos trace:   propertyUpdated( 10 , BLOCK , OUTPUTS ) : NO_CHANGES
Xcos trace:   propertyUpdated( 10 , BLOCK , EVENT_INPUTS ) : NO_CHANGES
Xcos trace:   propertyUpdated( 10 , BLOCK , EVENT_OUTPUTS ) : NO_CHANGES
Xcos info:    objectDeleted( 11 , PORT )
Xcos trace:   propertyUpdated( 10 , BLOCK , INPUTS ) : NO_CHANGES
Xcos debug:   propertyUpdated( 10 , BLOCK , OUTPUTS ) : SUCCESS
Xcos trace:   propertyUpdated( 10 , BLOCK , EVENT_INPUTS ) : NO_CHANGES
Xcos trace:   propertyUpdated( 10 , BLOCK , EVENT_OUTPUTS ) : NO_CHANGES
Xcos info:    objectDeleted( 12 , PORT )
Xcos info:    objectDeleted( 10 , BLOCK )
Xcos debug:   propertyUpdated( 2 , BLOCK , CHILDREN ) : SUCCESS
Xcos debug:   propertyUpdated( 13 , BLOCK , INPUTS ) : SUCCESS
Xcos trace:   propertyUpdated( 13 , BLOCK , OUTPUTS ) : NO_CHANGES
Xcos trace:   propertyUpdated( 13 , BLOCK , EVENT_INPUTS ) : NO_CHANGES
Xcos trace:   propertyUpdated( 13 , BLOCK , EVENT_OUTPUTS ) : NO_CHANGES
Xcos info:    objectDeleted( 14 , PORT )
Xcos debug:   propertyUpdated( 13 , BLOCK , INPUTS ) : SUCCESS
Xcos trace:   propertyUpdated( 13 , BLOCK , OUTPUTS ) : NO_CHANGES
Xcos trace:   propertyUpdated( 13 , BLOCK , EVENT_INPUTS ) : NO_CHANGES
Xcos trace:   propertyUpdated( 13 , BLOCK , EVENT_OUTPUTS ) : NO_CHANGES
Xcos info:    objectDeleted( 15 , PORT )
Xcos trace:   propertyUpdated( 13 , BLOCK , INPUTS ) : NO_CHANGES
Xcos debug:   propertyUpdated( 13 , BLOCK , OUTPUTS ) : SUCCESS
Xcos trace:   propertyUpdated( 13 , BLOCK , EVENT_INPUTS ) : NO_CHANGES
Xcos trace:   propertyUpdated( 13 , BLOCK , EVENT_OUTPUTS ) : NO_CHANGES
Xcos info:    objectDeleted( 16 , PORT )
Xcos info:    objectDeleted( 13 , BLOCK )
Xcos info:    objectDeleted( 2 , BLOCK )
// Check that all the model items are freed
clear
Xcos debug:   propertyUpdated( 17 , BLOCK , PARENT_DIAGRAM ) : SUCCESS
Xcos debug:   propertyUpdated( 17 , BLOCK , CHILDREN ) : SUCCESS
Xcos debug:   propertyUpdated( 18 , BLOCK , INPUTS ) : SUCCESS
Xcos trace:   propertyUpdated( 18 , BLOCK , OUTPUTS ) : NO_CHANGES
Xcos trace:   propertyUpdated( 18 , BLOCK , EVENT_INPUTS ) : NO_CHANGES
Xcos trace:   propertyUpdated( 18 , BLOCK , EVENT_OUTPUTS ) : NO_CHANGES
Xcos info:    objectDeleted( 19 , PORT )
Xcos trace:   propertyUpdated( 18 , BLOCK , INPUTS ) : NO_CHANGES
Xcos debug:   propertyUpdated( 18 , BLOCK , OUTPUTS ) : SUCCESS
Xcos trace:   propertyUpdated( 18 , BLOCK , EVENT_INPUTS ) : NO_CHANGES
Xcos trace:   propertyUpdated( 18 , BLOCK , EVENT_OUTPUTS ) : NO_CHANGES
Xcos info:    objectDeleted( 20 , PORT )
Xcos info:    objectDeleted( 18 , BLOCK )
Xcos debug:   propertyUpdated( 17 , BLOCK , CHILDREN ) : SUCCESS
Xcos debug:   propertyUpdated( 21 , BLOCK , INPUTS ) : SUCCESS
Xcos trace:   propertyUpdated( 21 , BLOCK , OUTPUTS ) : NO_CHANGES
Xcos trace:   propertyUpdated( 21 , BLOCK , EVENT_INPUTS ) : NO_CHANGES
Xcos trace:   propertyUpdated( 21 , BLOCK , EVENT_OUTPUTS ) : NO_CHANGES
Xcos info:    objectDeleted( 22 , PORT )
Xcos debug:   propertyUpdated( 21 , BLOCK , INPUTS ) : SUCCESS
Xcos trace:   propertyUpdated( 21 , BLOCK , OUTPUTS ) : NO_CHANGES
Xcos trace:   propertyUpdated( 21 , BLOCK , EVENT_INPUTS ) : NO_CHANGES
Xcos trace:   propertyUpdated( 21 , BLOCK , EVENT_OUTPUTS ) : NO_CHANGES
Xcos info:    objectDeleted( 23 , PORT )
Xcos trace:   propertyUpdated( 21 , BLOCK , INPUTS ) : NO_CHANGES
Xcos debug:   propertyUpdated( 21 , BLOCK , OUTPUTS ) : SUCCESS
Xcos trace:   propertyUpdated( 21 , BLOCK , EVENT_INPUTS ) : NO_CHANGES
Xcos trace:   propertyUpdated( 21 , BLOCK , EVENT_OUTPUTS ) : NO_CHANGES
Xcos info:    objectDeleted( 24 , PORT )
Xcos info:    objectDeleted( 21 , BLOCK )
Xcos debug:   propertyUpdated( 17 , BLOCK , CHILDREN ) : SUCCESS
Xcos debug:   propertyUpdated( 25 , BLOCK , INPUTS ) : SUCCESS
Xcos trace:   propertyUpdated( 25 , BLOCK , OUTPUTS ) : NO_CHANGES
Xcos trace:   propertyUpdated( 25 , BLOCK , EVENT_INPUTS ) : NO_CHANGES
Xcos trace:   propertyUpdated( 25 , BLOCK , EVENT_OUTPUTS ) : NO_CHANGES
Xcos info:    objectDeleted( 26 , PORT )
Xcos trace:   propertyUpdated( 25 , BLOCK , INPUTS ) : NO_CHANGES
Xcos debug:   propertyUpdated( 25 , BLOCK , OUTPUTS ) : SUCCESS
Xcos trace:   propertyUpdated( 25 , BLOCK , EVENT_INPUTS ) : NO_CHANGES
Xcos trace:   propertyUpdated( 25 , BLOCK , EVENT_OUTPUTS ) : NO_CHANGES
Xcos info:    objectDeleted( 27 , PORT )
Xcos info:    objectDeleted( 25 , BLOCK )
Xcos debug:   propertyUpdated( 17 , BLOCK , CHILDREN ) : SUCCESS
Xcos debug:   propertyUpdated( 28 , BLOCK , INPUTS ) : SUCCESS
Xcos trace:   propertyUpdated( 28 , BLOCK , OUTPUTS ) : NO_CHANGES
Xcos trace:   propertyUpdated( 28 , BLOCK , EVENT_INPUTS ) : NO_CHANGES
Xcos trace:   propertyUpdated( 28 , BLOCK , EVENT_OUTPUTS ) : NO_CHANGES
Xcos info:    objectDeleted( 29 , PORT )
Xcos debug:   propertyUpdated( 28 , BLOCK , INPUTS ) : SUCCESS
Xcos trace:   propertyUpdated( 28 , BLOCK , OUTPUTS ) : NO_CHANGES
Xcos trace:   propertyUpdated( 28 , BLOCK , EVENT_INPUTS ) : NO_CHANGES
Xcos trace:   propertyUpdated( 28 , BLOCK , EVENT_OUTPUTS ) : NO_CHANGES
Xcos info:    objectDeleted( 30 , PORT )
Xcos trace:   propertyUpdated( 28 , BLOCK , INPUTS ) : NO_CHANGES
Xcos debug:   propertyUpdated( 28 , BLOCK , OUTPUTS ) : SUCCESS
Xcos trace:   propertyUpdated( 28 , BLOCK , EVENT_INPUTS ) : NO_CHANGES
Xcos trace:   propertyUpdated( 28 , BLOCK , EVENT_OUTPUTS ) : NO_CHANGES
Xcos info:    objectDeleted( 31 , PORT )
Xcos info:    objectDeleted( 28 , BLOCK )
Xcos info:    objectDeleted( 17 , BLOCK )
Xcos info:    objectDeleted( 1 , DIAGRAM )
