// =============================================================================
// Scilab ( https://www.scilab.org/ ) - This file is part of Scilab
// Copyright (C) 2009 - DIGITEO - Pierre MARECHAL <pierre.marechal@scilab.org>
//
//  This file is distributed under the same license as the Scilab package.
// =============================================================================
// <-- CLI SHELL MODE -->
// <-- ENGLISH IMPOSED -->
load("SCI/modules/atoms/macros/atoms_internals/lib");
// If previous test did not end properly, restore, else backup config file
atomsRestoreConfig(%T);
atomsSaveConfig();
// Do not use the autoload system
atomsSetConfig("autoloadAddAfterInstall","False");
atomsSetConfig("Verbose" ,"False");
// Load the 1st scenario : See scene10.test.atoms.scilab.org.txt
// =============================================================================
atomsRepositorySetOfl("https://scene10.6.0.test.atoms.scilab.org");
Scanning repository https://scene10.6.0.test.atoms.scilab.org ... Done
// Install the toolbox 5
// =============================================================================
atomsInstall("toolbox_3V6");
atomsShow("toolbox_3V6");
                Package : toolbox_3V6
                  Title : Toolbox Test 3 for Scilab 6
                Summary : Toolbox Test 3 for Scilab 6
                Version : 1.0-1
                 Depend : toolbox_2V6 (>= 2.0)
          Category(ies) : Tests
              Author(s) : vincent.couvert@scilab-enterprises.com
          Maintainer(s) : Vincent Couvert <vincent.couvert@scilab-enterprises.com>
                 Entity : Scilab Enterprises
                WebSite : https://forge.scilab.org/index.php/p/atoms-tests/
                License : CeCILL
         Scilab Version : >= 6.0
                 Status : Installed
Automatically Installed : no
      Install Directory : SCI\contrib\toolbox_3V6\1.0-1
            Description : Test the Atoms system
                          
                          It contains 4 functions :
                           - t3_version()
                           - t3_function1()
                           - t3_function2()
                           - t3_function3()
atomsRemove("toolbox_3V6");
// Restore original values
// =============================================================================
atomsRestoreConfig(%T);
atomsRepositorySetOfl(mgetl(SCI+"/modules/atoms/tests/unit_tests/repositories.orig"));
Scanning repository https://atoms.scilab.org/6.0 ... Done
